…
The function returns a [tibble](https://tibble.tidyverse.org/) data
frame listing the available data sets. The column `url` can be used as
input for the function `get_boj()` which downloads, parses and imports
the corresponding data.

To import monthly-frequency data on Japan’s [Balance of
Payments](https://www.boj.or.jp/en/statistics/br/index.htm/), run:

``` r
bop <- get_boj(datasets$url[(datasets$name == "bp_m_en")])
bop
```

    ## # A tibble: 822,600 x 6
    ##    code     desc                      struc            unit      date  obs_value
    ##    <chr>    <chr>                     <chr>            <chr>     <chr>     <dbl>
    ##  1 BPBP6JY… Balance of Payments (Dat… Current account… 100 mill… 1996…      342.
    ##  2 BPBP6JY… Balance of Payments (Dat… Current account… 100 mill… 1996…     8609.
    ##  3 BPBP6JY… Balance of Payments (Dat… Current account… 100 mill… 1996…    13154.
    ##  4 BPBP6JY… Balance of Payments (Dat… Current account… 100 mill… 1996…     6176.
    ##  5 BPBP6JY… Balance of Payments (Dat… Current account… 100 mill… 1996…     4080.
    ##  6 BPBP6JY… Balance of Payments (Dat… Current account… 100 mill… 1996…     6361.
    ##  7 BPBP6JY… Balance of Payments (Dat… Current account… 100 mill… 1996…     5450.
    ##  8 BPBP6JY… Balance of Payments (Dat… Current account… 100 mill… 1996…     4778.
    ##  9 BPBP6JY… Balance of Payments (Dat… Current account… 100 mill… 1996…     7049.
    ## 10 BPBP6JY… Balance of Payments (Dat… Current account… 100 mill… 1996…     3758.
    ## # … with 822,590 more rows
…
